[
    {
        "type": "svg",
        "zRef": 1,
        "data": "<path style=\"stroke: none; fill: black;\" d=\" M 461 327 S 461,327,436,319 S 411,311,395,304.5 S 379,298,382,274 S 385,250,430,213 S 475,176,504,178 S 533,180,557.5,202 S 582,224,588.5,243 S 595,262,596,266 S 597,270,593,276.5 S 589,283,584.5,291 S 580,299,564,303 S 548,307,520.5,303 S 493,299,471,302 S 449,305,431.5,313.5 S 414,322,404.5,328.5 S 395,335,393,356 S 391,377,392.5,395 S 394,413,402.5,421 S 411,429,425.5,425.5 S 440,422,484,402 S 528,382,540.5,377 S 553,372,577.5,377.5 S 602,383,616.5,391.5 S 631,400,634,412.5 S 637,425,620.5,447 S 604,469,581,481 S 558,493,543.5,497 S 529,501,502,503 S 475,505,466.5,502 S 458,499,455,494 S 452,489,449.5,484.5 S 447,480,430.5,478.5 S 414,477,402,479.5 S 390,482,382,486.5 S 374,491,364.5,493.5 S 355,496,336,488.5 S 317,481,305.5,468.5 S 294,456,288,439 S 282,422,281,416 S 280,410,282,407.5 S 284,405,291,402 S 298,399,308,397 S 318,395,324,394 S 330,393,332,392.5 S 334,392,336,389.5 S 338,387,338.5,386 S 339,385,339,384.5 S 339,384,339,384 S 339,384,339,384 S 329,374,329,374 S 329,374,329,374 S 329,374,329,374.5 S 329,375,328.5,376 S 328,377,326,379.5 S 324,382,322,382.5 S 320,383,314,384 S 308,385,298,387 S 288,389,281,392 S 274,395,272,402.5 S 270,410,271,421 S 272,432,278,449 S 284,466,295.5,478.5 S 307,491,331,498.5 S 355,506,369.5,503.5 S 384,501,392,496.5 S 400,492,407,489.5 S 414,487,425.5,488.5 S 437,490,439.5,494.5 S 442,499,445,504 S 448,509,456.5,512 S 465,515,497,513 S 529,511,548.5,507 S 568,503,591,491 S 614,479,630.5,457 S 647,435,644,417.5 S 641,400,626.5,386.5 S 612,373,582.5,367.5 S 553,362,535.5,367 S 518,372,474,392 S 430,412,420.5,415.5 S 411,419,407.5,411 S 404,403,402.5,390 S 401,377,403,361 S 405,345,414.5,338.5 S 424,332,441.5,323.5 S 459,315,476,312 S 493,309,515.5,313 S 538,317,559,313 S 580,309,589.5,301 S 599,293,603,281.5 S 607,270,606,261 S 605,252,598.5,233 S 592,214,567.5,192 S 543,170,509,168 S 475,166,425,203 S 375,240,372,269 S 369,298,385,309.5 S 401,321,426,329 z\"></path>",
        "date": "2019-03-29T07:41:25.190Z",
        "id": "mdTCreWoaOxR_p_EAAAp"
    },
    {
        "type": "svg",
        "zRef": 1,
        "data": "<path style=\"stroke: none; fill: black;\" d=\" M 182 280 S 182,280,156,272.5 S 130,265,120,259.5 S 110,254,108.5,251.5 S 107,249,111.5,236.5 S 116,224,126.5,216 S 137,208,145,207 S 153,206,167.5,207 S 182,208,193.5,210 S 205,212,221,215 S 237,218,245,220.5 S 253,223,256,224.5 S 259,226,259.5,226 S 260,226,260,226.5 S 260,227,260,227 S 260,227,260,227 S 270,217,270,217 S 270,217,270,217 S 270,217,270,216.5 S 270,216,269.5,216 S 269,216,266,214.5 S 263,213,255,210.5 S 247,208,231,205 S 215,202,203.5,200 S 192,198,172.5,197 S 153,196,140,197 S 127,198,116.5,206 S 106,214,101.5,231.5 S 97,249,98.5,256.5 S 100,264,110,269.5 S 120,275,146,277.5 z\"></path>",
        "date": "2019-03-29T07:41:28.366Z",
        "id": "mdTCreWoaOxR_p_EAAAp"
    },
    {
        "type": "svg",
        "zRef": 0.6571950570745855,
        "data": "<path style=\"stroke: none; fill: black;\" d=\" M 334.0742825006658 337.9936055083633 S 334.0742825006658,337.9936055083633,330.45970968675556,338.9793980939752 S 326.8451368728454,339.96519067958707,321.916173944786,340.29378820812434 S 316.9872110167266,340.6223857366616,311.4010530315926,338.9793980939752 S 305.8148950464586,337.3364104512887,301.87172470401106,334.37903269445303 S 297.92855436156356,331.4216549376174,294.64257907619066,331.75025246615473 S 291.35660379081776,332.078849994692,292.6709939049669,330.76445988054286 S 293.98538401911605,329.45006976639365,296.28556671887713,328.1356796522445 S 298.58574941863816,326.82128953809536,301.54312717547384,324.5211068383343 S 304.50050493230947,322.22092413857325,303.5147123466976,320.9065340244241 S 302.52891976108566,319.5921439102749,304.8291024608467,319.9207414388122 S 307.12928516060776,320.24933896734944,309.7580653889061,321.2351315529613 S 312.3868456172045,322.22092413857325,318.3016011308757,324.192509309797 S 324.216356644547,326.16409448102075,328.4881245155318,327.4784845951699 S 332.75989238651664,328.7928747093191,337.688855314576,329.1214722378564 S 342.6178182426354,329.45006976639365,343.27501329971,327.4784845951699 S 343.9322083567846,325.50689942394615,343.9322083567846,323.20671672418507 S 343.9322083567846,320.90653402442405,343.9322083567846,319.5921439102749 S 343.9322083567846,318.2777537961257,343.9322083567846,314.6631809822155 S 343.9322083567846,311.0486081683053,343.60361082824727,310.720010639768 S 343.27501329971,310.3914131112307,341.96062318556085,309.73421805415614 S 340.64623307141164,309.07702299708154,336.3744652004268,308.0912304114696 S 332.10269732944204,307.10543782585773,328.1595269869945,305.7910477117086 S 324.216356644547,304.47665759755944,322.57336900186056,306.11964524024586 S 320.9303813591741,307.76263288293234,321.91617394478595,303.49086501194756 S 322.90196653039783,299.21909714096273,324.87355170162164,295.6045243270525 S 326.8451368728454,291.9899515131423,327.50233192991993,291.9899515131423 S 328.1595269869945,291.9899515131423,328.1595269869945,291.9899515131423 S 321.5875764162487,285.4180009423965,321.5875764162487,285.4180009423965 S 321.5875764162487,285.4180009423965,320.9303813591741,285.4180009423965 S 320.2731863020995,285.4180009423965,318.3016011308757,289.03257375630665 S 316.330015959652,292.6471465702169,315.3442233740401,300.2048897265746 S 314.3584307884282,307.76263288293234,316.0014184311147,309.4056205256188 S 317.6444060738012,311.0486081683053,321.5875764162487,312.36299828245444 S 325.5307467586962,313.67738839660365,329.802514629681,314.6631809822155 S 334.0742825006658,315.6489735678274,335.38867261481494,316.30616862490194 S 336.70306272896414,316.96336368197655,337.0316602575014,314.0059859251409 S 337.3602577860387,311.0486081683053,337.3602577860387,311.37720569684257 S 337.3602577860387,311.7058032253799,337.3602577860387,313.02019333952904 S 337.3602577860387,314.3345834536782,337.3602577860387,316.6347661534393 S 337.3602577860387,318.9349488532003,339.98903801433704,320.90653402442405 S 342.6178182426354,322.8781191956478,340.9748305999489,322.5495216671105 S 339.33184295726244,322.22092413857325,335.06007508627766,320.9065340244241 S 330.7883072152929,319.5921439102749,324.87355170162164,317.62055873905115 S 318.9587961879503,315.6489735678274,316.330015959652,314.6631809822155 S 313.7012357313537,313.67738839660365,308.1150777462197,313.3487908680663 S 302.5289197610857,313.02019333952904,300.22873706132464,314.3345834536782 S 297.92855436156356,315.6489735678274,294.97117660472793,317.9491562675884 S 292.0137988478923,320.24933896734944,289.7136161481313,321.56372908149865 S 287.41343344837026,322.8781191956478,286.09904333422105,327.4784845951699 S 284.78465322007185,332.078849994692,288.0706285054448,335.0362277515277 S 291.35660379081776,337.9936055083633,295.29977413326526,340.95098326519894 S 299.24294447571276,343.90836102203457,308.11507774621964,345.551348664721 S 316.9872110167266,347.19433630740747,325.20214923015885,346.8657387788702 S 333.4170874435912,346.53714125033287,333.7456849721285,345.551348664721 z\"></path>",
        "date": "2019-03-29T07:41:35.009Z",
        "id": "mdTCreWoaOxR_p_EAAAp"
    },
    {
        "type": "svg",
        "zRef": 0.36334694994907946,
        "data": "<path style=\"stroke: none; fill: black;\" d=\" M 402.78718136054056 466.643470868253 S 402.78718136054056,466.643470868253,398.24534448617703,464.6450626435331 S 393.70350761181356,462.64665441881317,389.70669116237366,461.73828704394043 S 385.7098747129338,460.82991966906775,385.89154818790837,458.10481754444965 S 386.07322166288293,455.37971541983154,389.1616707374501,452.2912663452644 S 392.25011981201726,449.2028172706972,392.6134667619664,448.2944498958245 S 392.97681371191544,447.38608252095185,395.8835893115081,447.7494294709009 S 398.7903649111007,448.11277642084997,404.603916110286,450.6562050704935 S 410.41746730947125,453.19963372013706,415.3226511337838,454.47134804495886 S 420.22783495809637,455.74306236978066,422.0445697078418,455.37971541983154 S 423.86130445758715,455.0163684698825,424.76967183245984,452.6546132952135 S 425.6780392073326,450.29285812054445,426.04138615728164,448.4761233707991 S 426.4047331072307,446.65938862105367,426.4047331072307,446.2960416711046 S 426.4047331072307,445.9326947211555,426.4047331072307,445.9326947211555 S 426.4047331072307,445.9326947211555,426.4047331072307,445.9326947211555 S 422.7712636077399,442.2992252216647,422.7712636077399,442.2992252216647 S 422.7712636077399,442.2992252216647,422.7712636077399,442.2992252216647 S 422.7712636077399,442.2992252216647,422.7712636077399,442.66257217161376 S 422.7712636077399,443.0259191215629,422.40791665779085,444.84265387130824 S 422.0445697078418,446.65938862105367,421.1362023329691,449.02114379572265 S 420.22783495809637,451.3828989703917,420.22783495809637,451.7462459203408 S 420.22783495809637,452.1095928702899,417.1393858835292,450.8378785454681 S 414.05093680896204,449.5661642206463,408.23738560977677,447.0227355710027 S 402.42383441059144,444.4793069213592,397.7003240612534,444.1159599714101 S 392.9768137119154,443.752613021461,390.7967320122209,444.6609803963337 S 388.6166503125265,445.5693477712064,385.52820123795925,448.6577968457736 S 382.4397521633921,451.74624592034075,382.2580786884175,456.2880827947042 S 382.076405213443,460.82991966906775,386.07322166288293,463.55502179368585 S 390.0700381123228,466.28012391830396,394.6118749866863,466.4617973932785 z\"></path>",
        "date": "2019-03-29T07:41:39.335Z",
        "id": "mdTCreWoaOxR_p_EAAAp"
    },
    {
        "type": "svg",
        "zRef": 0.9518143961927424,
        "data": "<path style=\"stroke: none; fill: black;\" d=\" M 99 438 S 99,438,113.5,422.5 S 128,407,145.5,398.5 S 163,390,185.5,389 S 208,388,214.5,415.5 S 221,443,216,460.5 S 211,478,195.5,490.5 S 180,503,169.5,511 S 159,519,151,533 S 143,547,139.5,557.5 S 136,568,143,570 S 150,572,173.5,570.5 S 197,569,200,568 S 203,567,203,567 S 203,567,190.78593750000005,576.0120312500001 S 178.57187500000006,585.0240625,132.7656850227553,628.8501953602091 S 86.9594950455105,672.6763282204182,120.99450195821606,700.9181424671312 S 155.02950887092163,729.1599567138444,178.92642861814042,735.6772984630859 S 202.8233483653592,742.1946402123274,207.8923919481026,736.401447546335 S 212.96143553084602,730.6082548803425,224.5478208628309,715.4011241321124 S 236.13420619481576,700.1939933838822,251.34133694304592,690.7800553016446 S 266.5484676912761,681.3661172194068,271.6175112740194,672.6763282204181 S 276.6865548567628,663.9865392214296,278.4351099602178,660.2863140277545 S 280.18366506367283,656.5860888340794,287.2457664857478,654.6467786258027 S 294.3078679078228,652.7074684175258,316.15604332891144,620.9473162400129 S 338.00421875000006,589.1871640625,346.00210937500003,567.59358203125 S 354,546,346.5175490779298,541.5004461629983 S 339.0350981558596,537.0008923259965,335.2278405710886,542.2358715050566 S 331.42058298631764,547.4708506841166,332.37239738251037,547.4708506841166 S 333.3242117787031,547.4708506841166,333.3242117787031,547.4708506841166 S 342.8423557406306,537.9527067221892,342.8423557406306,537.9527067221892 S 342.8423557406306,537.9527067221892,341.8905413444378,542.711778703153 S 340.93872694824506,547.4708506841166,339.98691255205233,546.9949434860202 S 339.0350981558596,546.5190362879239,341.5175490779298,546.2595181439619 S 344,546,335.61765625000004,562.20912890625 S 327.2353125000001,578.4182578125,304.21115691490513,615.562863115013 S 281.1870013298102,652.7074684175259,273.6204640918727,661.7116477306715 S 266.0539268539352,670.7158270438172,264.12875002285847,667.3511831326234 S 262.20357319178174,663.9865392214296,257.13452960903834,665.4348373879277 S 252.06548602629496,666.8831355544257,236.85835527806483,676.2970736366634 S 221.65122452983468,685.7110117189011,210.0648391978498,700.9181424671312 S 198.47845386586494,716.1252732153614,200.6509011156121,721.9184658813539 S 202.82334836535927,727.7116585473464,186.167919450631,721.1943167981049 S 169.5124905359027,714.6769750488634,135.47748362319714,686.4351608021502 S 101.44247671049158,658.1933465554371,140.0071758552458,621.6087045277186 S 178.57187500000003,585.0240625,185.78593750000002,581.0120312500001 S 193,577,193,577 S 193,577,195,573 S 197,569,178.5,565.5 S 160,562,153,560 S 146,558,149.5,552.5 S 153,547,161,538 S 169,529,179.5,521 S 190,513,205.5,500.5 S 221,488,226,470.5 S 231,453,224.5,420.5 S 218,388,190.5,384 S 163,380,140.5,388.5 S 118,397,103.5,417.5 z\"></path>",
        "date": "2019-03-29T07:44:14.413Z",
        "id": "3uo25mtRMXJJOgkGAAAq"
    },
    {
        "type": "svg",
        "zRef": 0.6571950570745855,
        "data": "<path style=\"stroke: none; fill: black;\" d=\" M 488.51512091319336 552.2391941146782 S 488.51512091319336,552.2391941146782,487.85792585611875,553.5535842288273 S 487.2007307990442,554.8679743429765,489.5009134988053,546.3244386010069 S 491.8010961985663,537.7809028590373,496.0728640695511,534.4949275736643 S 500.3446319405359,531.2089522882914,512.8313380249531,530.880354759754 S 525.3180441093701,530.5517572312168,534.190177379877,535.4807201592762 S 543.062310650384,540.4096830873356,544.3767007645331,539.0952929731864 S 545.6910908786823,537.7809028590373,545.0338958216078,542.0526707300221 S 544.3767007645331,546.3244386010069,541.4193230076975,553.8821817573646 S 538.4619452508618,561.4399249137223,530.9042020945042,567.3546804273935 S 523.3464589381464,573.2694359410649,512.8313380249531,576.2268136979005 S 502.31621711175967,579.1841914547362,498.04444924077484,585.756142025482 S 493.77268136979006,592.3280925962277,495.0870714839392,598.9000431669737 S 496.4014615980884,605.4719937377196,506.5879849827445,611.715346779928 S 516.7745083674006,617.9586998221366,533.2043847942653,619.601687464823 S 549.6342612211298,621.2446751075096,558.1777969630994,625.8450405070316 S 566.721332705069,630.4454059065538,566.721332705069,630.4454059065538 S 573.2932832758149,623.873455335808,573.2932832758149,623.873455335808 S 573.2932832758149,623.873455335808,564.7497475338453,619.2730899362859 S 556.2062117918757,614.6727245367638,539.776335365011,613.0297368940774 S 523.3464589381464,611.3867492513908,513.1599355534903,605.1433962091824 S 502.9734121688343,598.9000431669738,501.6590220546851,595.6140678816008 S 500.3446319405359,592.3280925962279,504.61639981152075,589.0421173108549 S 508.8881676825055,585.756142025482,519.4032885956989,582.7987642686463 S 529.9184095088923,579.8413865118107,537.4761526652501,573.9266309981394 S 545.0338958216078,568.0118754844682,547.9912735784434,560.4541323281105 S 550.948651335279,552.8963891717527,551.6058463923536,545.3386460153949 S 552.2630414494281,537.7809028590373,550.948651335279,535.8093176878135 S 549.6342612211298,533.8377325165898,540.7621279506229,528.9087695885304 S 531.889994680116,523.979806660471,516.1173133103259,524.3084041890083 S 500.3446319405359,524.6370017175456,492.7868887841782,527.9229770029185 S 485.22914562782046,531.2089522882914,482.9289629280594,543.0384633156339 S 480.62878022829835,554.8679743429765,481.28597528537296,556.8395595142002 z\"></path>",
        "date": "2019-03-29T07:44:18.425Z",
        "id": "3uo25mtRMXJJOgkGAAAq"
    },
    {
        "type": "svg",
        "zRef": 0.6571950570745855,
        "data": "<path style=\"stroke: none; fill: black;\" d=\" M 604.1814509583204 534.4949275736643 S 604.1814509583204,534.4949275736643,604.5100484868576,530.5517572312168 S 604.8386460153949,526.6085868887693,617.3253520998121,502.94956483408424 S 629.8120581842293,479.2905427793992,634.0838260552141,475.3473724369517 S 638.3555939261989,471.4042020945041,658.7286406955111,481.91932300769747 S 679.1016874648232,492.4344439208909,689.9454059065538,494.40602909211464 S 700.7891243482845,496.3776142633384,706.7038798619558,485.86249335014503 S 712.618635375627,475.3473724369517,714.9188180753881,460.5604836527735 S 717.2190007751491,445.7735948685953,715.5760131324625,439.85883935492404 S 713.9330254897761,433.94408384125273,709.0040625617168,429.34371844173063 S 704.0750996336574,424.7433530422086,704.0750996336574,412.58524448632875 S 704.0750996336574,400.4271359304489,707.032477390493,396.1553680594641 S 709.9898551473286,391.8836001884793,713.9330254897761,389.25481996018095 S 717.8761958322236,386.6260397318826,717.8761958322236,386.6260397318826 S 711.3042452614778,380.05408916113674,711.3042452614778,380.05408916113674 S 711.3042452614778,380.05408916113674,707.3610749190303,382.6828693894351 S 703.4179045765828,385.31164961773345,700.4605268197472,389.5834174887183 S 697.5031490629116,393.85518535970306,697.5031490629116,409.2992692009558 S 697.5031490629116,424.7433530422086,702.432111990971,432.6296937271036 S 707.3610749190303,440.5160344119986,709.0040625617169,443.14481464029694 S 710.6470502044033,445.7735948685953,708.3468675046422,457.27450836740053 S 706.0466848048811,468.77542186620576,700.1319292912099,479.2905427793992 S 694.2171737775386,489.80566369259253,686.659430621181,487.8340785213687 S 679.1016874648232,485.862493350145,658.728640695511,475.3473724369516 S 638.3555939261988,464.83225152375826,630.797850769841,468.77542186620576 S 623.2401076134834,472.7185922086533,610.7534015290662,496.3776142633384 S 598.2666954446491,520.0366363180235,601.2240732014848,527.2657819458439 z\"></path>",
        "date": "2019-03-29T07:44:20.722Z",
        "id": "3uo25mtRMXJJOgkGAAAq"
    },
    {
        "type": "svg",
        "zRef": 0.6571950570745855,
        "data": "<path style=\"stroke: none; fill: black;\" d=\" M 663.9862011521077 339.30799562251246 S 663.9862011521077,339.30799562251246,664.314798680645,337.00781292275144 S 664.6433962091822,334.70763022299036,669.5723591372416,322.5495216671105 S 674.5013220653011,310.3914131112307,676.4729072365249,304.47665759755944 S 678.4444924077486,298.5619020838882,685.3450405070317,303.16226748341023 S 692.2455886063149,307.76263288293234,701.1177218768217,317.2919612105138 S 709.9898551473286,326.82128953809536,711.9614403185524,325.8354969524835 S 713.9330254897761,324.8497043668716,715.9046106609999,318.27775379612575 S 717.8761958322236,311.7058032253799,718.8619884178355,309.73421805415614 S 719.8477810034474,307.76263288293234,716.8904032466119,306.4482427687832 S 713.9330254897762,305.133852654634,713.9330254897761,306.11964524024586 S 713.9330254897761,307.10543782585773,713.9330254897761,307.43403535439506 S 713.9330254897761,307.76263288293234,713.6044279612388,307.76263288293234 S 713.2758304327016,307.76263288293234,713.2758304327016,307.76263288293234 S 719.8477810034474,314.3345834536782,719.8477810034474,314.3345834536782 S 719.8477810034474,314.3345834536782,720.1763785319847,311.04860816830524 S 720.504976060522,307.76263288293234,720.504976060522,304.1480600690221 S 720.504976060522,300.53348725511194,717.2190007751491,299.54769466950006 S 713.9330254897761,298.5619020838882,713.6044279612388,299.87629219803733 S 713.2758304327016,301.1906823121865,712.2900378470897,303.16226748341023 S 711.3042452614778,305.133852654634,709.3326600902541,311.70580322537984 S 707.3610749190303,318.2777537961257,708.6754650331795,319.26354638173757 S 709.9898551473286,320.24933896734944,704.4036971621947,310.72001063976796 S 698.8175391770608,301.1906823121865,688.6310157924047,296.5903169126644 S 678.4444924077486,291.9899515131423,673.1869319511519,297.9047070268135 S 667.9293714945552,303.81946254048484,663.0004085664958,315.97757109636467 S 658.0714456384364,328.1356796522445,657.7428481098991,330.43586235200553 z\"></path>",
        "date": "2019-03-29T07:44:26.149Z",
        "id": "3uo25mtRMXJJOgkGAAAq"
    },
    {
        "type": "svg",
        "zRef": 0.6571950570745855,
        "data": "<path style=\"stroke: none; fill: black;\" d=\" M 640.9843741544972 270.95970968675556 S 640.9843741544972,270.95970968675556,641.9701667401091,266.35934428723345 S 642.955959325721,261.75897888771135,647.2277271967057,255.8442233740401 S 651.4994950676905,249.92946786036885,653.142482710377,245.657699989384 S 654.7854703530635,241.3859321183992,662.3432135094213,242.04312717547378 S 669.900956665779,242.7003222325484,675.4871146509129,244.67190740377214 S 681.0732726360469,246.64349257499592,688.3024182638674,247.3006876320705 S 695.5315638916877,247.95788268914507,696.8459540058369,246.6434925749959 S 698.1603441199861,245.32910246084674,700.7891243482845,242.7003222325484 S 703.4179045765828,240.07154200425006,706.0466848048811,235.14257907619066 S 708.6754650331795,230.21361614813128,710.9756477329406,225.2846532200719 S 713.2758304327016,220.3556902920125,713.9330254897761,218.38410512078872 S 714.5902205468508,216.41251994956497,714.5902205468508,216.41251994956497 S 714.5902205468508,216.41251994956497,714.5902205468508,216.41251994956497 S 714.5902205468508,216.41251994956497,716.8904032466119,213.45514219272934 S 719.1905859463728,210.4977644358937,721.8193661746711,207.5403866790581 S 724.4481464029695,204.58300892222243,722.1479637032085,203.59721633661056 S 719.8477810034475,202.61142375099868,720.504976060522,203.26861880807326 S 721.1621711175966,203.92581386514786,724.4481464029695,203.92581386514786 S 727.7341216883424,203.92581386514786,740.5494253012969,199.32544846562575 S 753.3647289142514,194.72508306610365,772.7519830979516,191.43910778073072 S 792.1392372816518,188.1531324953578,788.8532619962789,184.86715720998487 S 785.567286710906,181.58118192461194,786.5530792965178,176.32362146801526 S 787.5388718821297,171.06606101141858,781.9527138969956,170.73746348288128 S 776.3665559118617,170.40886595434398,766.508630055743,169.7516708972694 S 756.6507041996242,169.09447584019483,748.1071684576546,171.72325606849319 S 739.563632715685,174.3520362967915,739.563632715685,175.3378288824034 S 739.563632715685,176.32362146801526,739.563632715685,176.32362146801526 S 746.1355832864308,169.7516708972694,746.1355832864308,169.7516708972694 S 746.1355832864308,169.7516708972694,742.849608001058,172.05185359703046 S 739.563632715685,174.3520362967915,744.8211931722817,175.00923135386608 S 750.0787536288783,175.6664264109407,759.9366794849971,176.32362146801526 S 769.7946053411159,176.98081652508984,778.6667386116228,177.30941405362714 S 787.5388718821298,177.63801158216444,786.5530792965179,179.6095967533882 S 785.567286710906,181.58118192461194,785.567286710906,181.58118192461194 S 785.567286710906,181.58118192461194,766.1800325272058,184.86715720998487 S 746.7927783435055,188.1531324953578,737.263450015924,192.7534978948799 S 727.7341216883425,197.353863294402,727.7341216883425,197.353863294402 S 727.7341216883425,197.353863294402,723.7909513458949,196.6966682373274 S 719.8477810034474,196.03947318025283,718.8619884178355,197.0252657658647 S 717.8761958322236,198.01105835147658,715.2474156039253,200.96843610831223 S 712.618635375627,203.92581386514786,710.318452675866,206.88319162198349 S 708.0182699761049,209.8405693788191,708.0182699761049,209.8405693788191 S 708.0182699761049,209.8405693788191,708.0182699761049,209.8405693788191 S 708.0182699761049,209.8405693788191,707.3610749190303,211.81215455004286 S 706.7038798619558,213.78373972126664,704.4036971621947,218.71270264932605 S 702.1035144624336,223.64166557738542,699.4747342341352,228.5706285054448 S 696.8459540058369,233.4995914335042,694.2171737775386,236.12837166180253 S 691.5883935492402,238.7571518901009,693.559978720464,240.07154200425003 S 695.5315638916878,241.3859321183992,691.5883935492402,240.72873706132464 S 687.6452232067927,240.07154200425006,682.0590652216588,238.09995683302628 S 676.4729072365249,236.12837166180253,665.6291887947941,235.47117660472793 S 654.7854703530635,234.81398154765336,649.8565074250041,239.08574941863816 S 644.9275444969447,243.357517289623,640.6557766259599,249.27227280329424 S 636.3840087549751,255.18702831696552,635.3982161693632,259.7873937164876 z\"></path>",
        "date": "2019-03-29T07:44:30.527Z",
        "id": "3uo25mtRMXJJOgkGAAAq"
    },
    {
        "type": "svg",
        "zRef": 0.4110937233011472,
        "data": "<path style=\"stroke: none; fill: black;\" d=\" M 561.0409321068317 321.68742816257986 S 561.0409321068317,321.68742816257986,557.7521823204225,324.5650842256879 S 554.4634325340134,327.4427402887959,538.2252304636181,337.30898964802344 S 521.9870283932228,347.175239007251,516.2317162670067,351.49172310191307 S 510.47640414079063,355.8082071965751,508.00984180098374,351.90281682521413 S 505.54327946117684,347.9974264538532,509.0375761092366,342.4476611892877 S 512.5318727572964,336.89789592472226,513.7651539271999,333.6091461383131 S 514.9984350971033,330.3203963519039,526.9201530728366,328.8815683203499 S 538.8418710485698,327.4427402887959,553.4356982257605,332.3758649684097 S 568.0295254029512,337.30898964802344,577.279134177227,338.953364541228 S 586.5287429515029,340.5977394344326,588.7897584296592,336.6923490630717 S 591.0507739078155,332.7869586917108,593.3117893859718,324.97617794898906 S 595.5728048641281,317.16539720626724,596.3949923107305,310.3823507717983 S 597.2171797573327,303.59930433732933,597.0116328956822,302.1604763057753 S 596.8060860340315,300.7216482742213,596.8060860340315,300.7216482742213 S 596.8060860340315,300.7216482742213,596.8060860340315,300.7216482742213 S 592.6951488010201,304.8325855072328,592.6951488010201,304.8325855072328 S 592.6951488010201,304.8325855072328,592.6951488010201,304.8325855072328 S 592.6951488010201,304.8325855072328,592.9006956626706,304.2159449222811 S 593.1062425243213,303.5993043373294,592.2840550777189,308.32688215529254 S 591.4618676311167,313.05445997325575,589.2008521529604,320.8652407159775 S 586.939836674804,328.6760214586993,586.7342898131535,332.58141183006023 S 586.5287429515029,336.48680220142114,579.3346027937328,334.84242730821654 S 572.1404626359626,333.19805241501194,557.546635458772,328.26492773539815 S 542.9528082815813,323.3318030557844,528.9756216893422,324.7706310873384 S 514.9984350971032,326.2094591188925,511.70968531069406,329.4982089053017 S 508.4209355242849,332.7869586917108,504.9266388762252,338.3367239562763 S 501.4323422281654,343.8864892208418,505.954373184478,349.8473482087084 S 510.47640414079063,355.80820719657504,518.2871848835124,353.54719171841873 S 526.0979656262342,351.2861762402624,542.3361676966294,341.4199268810349 S 558.5743697670248,331.55367752180734,561.863119553434,328.6760214586993 z\"></path>",
        "date": "2019-03-29T07:44:33.661Z",
        "id": "3uo25mtRMXJJOgkGAAAq"
    }
]