[
    {
        "type": "svg",
        "zRef": 1,
        "data": "<path style=\"stroke: none; fill: black;\" d=\" M 337 221 S 337,221,358.5,206 S 380,191,395.5,180.5 S 411,170,417.5,166 S 424,162,425.5,161.5 S 427,161,427,161 S 417,151,417,151 S 417,151,415.5,151.5 S 414,152,407.5,156 S 401,160,385.5,170.5 S 370,181,348.5,201 z\"></path>",
        "date": "2019-03-29T07:49:25.964Z",
        "id": "OWKBCov8vH6mkBDjAAA4"
    },
    {
        "type": "svg",
        "zRef": 0.7811984017257273,
        "data": "<path style=\"stroke: none; fill: black;\" d=\" M 438.1588815119879 217.3414115556252 S 438.1588815119879,217.3414115556252,439.72127831543935,215.77901475217374 S 441.2836751188908,214.2166179487223,449.09565913614813,209.13882833750506 S 456.9076431534054,204.06103872628785,467.0632223758398,196.63965390989344 S 477.2188015982743,189.21826909349903,482.2965912094915,185.70287628573325 S 487.3743808207087,182.18748347796748,488.9367776241602,181.40628507624174 S 490.49917442761165,180.625086674516,490.49917442761165,180.625086674516 S 490.49917442761165,180.625086674516,486.593182418983,180.625086674516 S 482.6871904103544,180.625086674516,482.6871904103544,182.18748347796748 S 482.6871904103544,183.74988028141894,482.6871904103544,183.74988028141894 S 482.6871904103544,183.74988028141894,482.6871904103544,183.74988028141894 S 490.49917442761165,175.93789626416165,490.49917442761165,175.93789626416165 S 490.49917442761165,175.93789626416165,490.49917442761165,175.93789626416165 S 490.49917442761165,175.93789626416165,486.593182418983,174.37549946071022 S 482.6871904103544,172.81310265725875,482.6871904103544,172.81310265725875 S 482.6871904103544,172.81310265725875,482.6871904103544,172.81310265725875 S 482.6871904103544,172.81310265725875,481.1247936069029,173.59430105898448 S 479.56239680345146,174.37549946071022,474.4846071922342,177.89089226847597 S 469.406817581017,181.40628507624174,459.25123835858255,188.82766989263615 S 449.0956591361481,196.24905470903056,441.2836751188908,201.3268443202478 S 433.47169110163355,206.404633931465,431.9092942981821,207.96703073491648 z\"></path>",
        "date": "2019-03-29T07:49:28.916Z",
        "id": "OWKBCov8vH6mkBDjAAA4"
    },
    {
        "type": "svg",
        "zRef": 0.5953862857159326,
        "data": "<path style=\"stroke: none; fill: black;\" d=\" M 480.9769314285797 258.0433959995562 S 480.9769314285797,258.0433959995562,484.5492491428753,255.3641577138345 S 488.1215668571709,252.68491942811278,496.7546680000519,248.21952228524327 S 505.3877691429329,243.7541251423738,513.12779085724,238.9910348566463 S 520.8678125715471,234.22794457091885,523.5470508572688,232.73947885662903 S 526.2262891429905,231.2510131423392,526.2262891429905,231.2510131423392 S 520.2724262858312,225.29715028517987,520.2724262858312,225.29715028517987 S 520.2724262858312,225.29715028517987,517.5931880001095,226.7856159994697 S 514.9139497143879,228.27408171375953,507.1739280000807,233.037171999487 S 499.43390628577356,237.80026228521444,490.80080514289256,242.26565942808395 S 482.16770400001155,246.73105657095346,478.5953862857159,249.41029485667514 z\"></path>",
        "date": "2019-03-29T07:49:30.925Z",
        "id": "OWKBCov8vH6mkBDjAAA4"
    },
    {
        "type": "svg",
        "zRef": 0.5953862857159326,
        "data": "<path style=\"stroke: none; fill: black;\" d=\" M 450.01684457135116 270.54650799959074 S 450.01684457135116,270.54650799959074,455.6730142856525,266.97419028529515 S 461.3291839999539,263.40187257099956,464.6038085713915,260.4249411424199 S 467.8784331428291,257.44800971384024,468.4738194285451,256.8526234281243 S 469.069205714261,256.25723714240837,466.3899674285393,256.25723714240837 S 463.7107291428176,256.25723714240837,463.7107291428176,256.5549302852663 S 463.7107291428176,256.8526234281243,463.7107291428176,256.8526234281243 S 463.7107291428176,256.8526234281243,463.7107291428176,256.8526234281243 S 463.7107291428176,256.8526234281243,463.7107291428176,254.1733851424026 S 463.7107291428176,251.4941468566809,463.4130359999597,251.4941468566809 S 463.11534285710167,251.4941468566809,459.840718285664,255.36415771383446 S 456.56609371422644,259.234168570988,447.0399131427715,264.5926451424314 S 437.5137325713166,269.95112171387484,428.88063142843555,276.2026777138921 S 420.24753028555455,282.4542337139094,417.27059885697486,284.8357788567731 S 414.2936674283952,287.21732399963685,413.6982811426793,290.4919485710745 S 413.10289485696336,293.76657314251213,413.6982811426793,293.76657314251213 S 414.2936674283952,293.76657314251213,414.2936674283952,293.76657314251213 S 420.24753028555455,287.8127102853528,420.24753028555455,287.8127102853528 S 420.24753028555455,287.8127102853528,419.6521439998386,290.7896417139325 S 419.0567577141227,293.76657314251213,419.6521439998386,293.4688799996542 S 420.24753028555455,293.17118685679617,423.22446171413424,290.7896417139325 S 426.20139314271387,288.40809657106877,434.83449428559493,282.15654057105144 S 443.46759542847593,275.9049845710341,452.99377599993085,270.54650799959074 S 462.51995657138576,265.1880314281474,465.7945811428234,261.3180205709938 S 469.069205714261,257.44800971384024,469.36689885711894,254.47107828526057 S 469.66459199997695,251.4941468566809,469.66459199997695,251.19645371382296 S 469.66459199997695,250.89876057096498,469.66459199997695,250.89876057096498 S 469.66459199997695,250.89876057096498,469.66459199997695,250.89876057096498 S 469.66459199997695,250.89876057096498,466.68766057139726,250.601067428107 S 463.7107291428176,250.30337428524905,463.4130359999597,250.30337428524905 S 463.11534285710167,250.30337428524905,462.5199565713857,250.89876057096498 S 461.9245702856698,251.4941468566809,458.6499457142322,254.47107828526057 S 455.3753211427946,257.44800971384024,449.7191514284932,261.02032742813583 z\"></path>",
        "date": "2019-03-29T07:49:35.085Z",
        "id": "OWKBCov8vH6mkBDjAAA4"
    },
    {
        "type": "svg",
        "zRef": 0.5953862857159326,
        "data": "<path style=\"stroke: none; fill: black;\" d=\" M 510.15085942866034 311.03277542827414 S 510.15085942866034,311.03277542827414,517.5931880001095,305.9719919996887 S 525.0355165715587,300.9112085711033,534.5616971430136,296.14811828537586 S 544.0878777144685,291.3850279996484,548.2555817144801,288.7057897139267 S 552.4232857144916,286.026551428205,553.0186720002075,285.728858285347 S 553.6140582859234,285.431165142489,553.6140582859234,285.431165142489 S 553.6140582859234,285.431165142489,553.6140582859234,285.431165142489 S 553.6140582859234,285.431165142489,553.6140582859234,285.431165142489 S 547.6601954287642,279.47730228532976,547.6601954287642,279.47730228532976 S 547.6601954287642,279.47730228532976,547.6601954287642,279.47730228532976 S 547.6601954287642,279.47730228532976,547.6601954287642,279.47730228532976 S 547.6601954287642,279.47730228532976,547.0648091430483,279.7749954281877 S 546.4694228573322,280.07268857104566,542.3017188573208,282.75192685676734 S 538.1340148573092,285.431165142489,528.6078342858543,290.1942554282165 S 519.0816537143994,294.957345713944,514.6162565715299,300.01812914252946 z\"></path>",
        "date": "2019-03-29T07:49:39.909Z",
        "id": "OWKBCov8vH6mkBDjAAA4"
    }
]